{
  "version": 2,
  "projects": {
    "shared-data-access": {
      "root": "libs/shared/data-access",
      "sourceRoot": "libs/shared/data-access/src",
      "projectType": "library",
      "targets": {
        "lint": {
          "executor": "@nrwl/linter:eslint",
          "outputs": ["{options.outputFile}"],
          "options": {
            "lintFilePatterns": ["libs/shared/data-access/**/*.{ts,tsx,js,jsx}"]
          }
        },
        "test": {
          "executor": "@nrwl/jest:jest",
          "outputs": [
            "coverage/libs/shared/data-access",
            "build/test-results/jest"
          ],
          "options": {
            "jestConfig": "libs/shared/data-access/jest.config.js",
            "passWithNoTests": true
          }
        }
      },
      "tags": []
    },
    "sn-application": {
      "root": "apps/sn-application",
      "projectType": "application",
      "sourceRoot": "apps/sn-application/src",
      "targets": {
        "build": {
          "executor": "@jnxplus/nx-boot-gradle:build",
          "options": {
            "packaging": "jar"
          }
        },
        "serve": {
          "executor": "@jnxplus/nx-boot-gradle:serve"
        },
        "lint": {
          "executor": "@jnxplus/nx-boot-gradle:lint",
          "options": {
            "linter": "checkstyle"
          }
        },
        "test": {
          "executor": "./tools/executors/gradle-test:test"
        },
        "docker": {
          "executor": "@nrwl/workspace:run-commands",
          "options": {
            "commands": [
              "yarn nx build sn-application",
              "docker build -f ./apps/sn-application/Dockerfile . -t wizard2020abc/social-network-backend:1.0.0 -t wizard2020abc/social-network-backend",
              "docker push wizard2020abc/social-network-backend:1.0.0",
              "docker push wizard2020abc/social-network-backend"
            ],
            "parallel": false
          }
        }
      },
      "tags": [],
      "implicitDependencies": ["sn-user"]
    },
    "sn-common": {
      "root": "libs/sn-application/sn-common",
      "projectType": "library",
      "sourceRoot": "libs/sn-application/sn-common/src",
      "targets": {
        "build": {
          "executor": "@jnxplus/nx-boot-gradle:build"
        },
        "lint": {
          "executor": "@jnxplus/nx-boot-gradle:lint",
          "options": {
            "linter": "checkstyle"
          }
        },
        "test": {
          "executor": "./tools/executors/gradle-test:test"
        }
      },
      "tags": []
    },
    "sn-domain": {
      "root": "libs/sn-application/sn-domain",
      "projectType": "library",
      "sourceRoot": "libs/sn-application/sn-domain/src",
      "targets": {
        "build": {
          "executor": "@jnxplus/nx-boot-gradle:build"
        },
        "lint": {
          "executor": "@jnxplus/nx-boot-gradle:lint",
          "options": {
            "linter": "checkstyle"
          }
        },
        "test": {
          "executor": "./tools/executors/gradle-test:test"
        }
      },
      "tags": []
    },
    "sn-user": {
      "root": "libs/sn-application/sn-user",
      "projectType": "library",
      "sourceRoot": "libs/sn-application/sn-user/src",
      "targets": {
        "build": {
          "executor": "@jnxplus/nx-boot-gradle:build"
        },
        "lint": {
          "executor": "@jnxplus/nx-boot-gradle:lint",
          "options": {
            "linter": "checkstyle"
          }
        },
        "test": {
          "executor": "./tools/executors/gradle-test:test"
        }
      },
      "tags": []
    },
    "social-network-frontend": {
      "root": "apps/social-network-frontend",
      "sourceRoot": "apps/social-network-frontend/src",
      "projectType": "application",
      "targets": {
        "build": {
          "executor": "@nrwl/web:build",
          "outputs": ["{options.outputPath}"],
          "options": {
            "outputPath": "dist/apps/social-network-frontend",
            "index": "apps/social-network-frontend/src/index.html",
            "main": "apps/social-network-frontend/src/main.tsx",
            "polyfills": "apps/social-network-frontend/src/polyfills.ts",
            "tsConfig": "apps/social-network-frontend/tsconfig.app.json",
            "assets": [
              "apps/social-network-frontend/src/favicon.ico",
              "apps/social-network-frontend/src/assets"
            ],
            "styles": ["apps/social-network-frontend/src/styles.scss"],
            "scripts": [],
            "webpackConfig": "@nrwl/react/plugins/webpack"
          },
          "configurations": {
            "production": {
              "fileReplacements": [
                {
                  "replace": "libs/social-network-frontend/config-env/src/lib/environment.ts",
                  "with": "libs/social-network-frontend/config-env/src/lib/environment.prod.ts"
                }
              ],
              "optimization": true,
              "outputHashing": "all",
              "sourceMap": false,
              "extractCss": true,
              "namedChunks": false,
              "extractLicenses": true,
              "vendorChunk": false,
              "budgets": [
                {
                  "type": "initial",
                  "maximumWarning": "500kb",
                  "maximumError": "1mb"
                }
              ]
            }
          }
        },
        "serve": {
          "executor": "@nrwl/web:dev-server",
          "options": {
            "buildTarget": "social-network-frontend:build",
            "hmr": true
          },
          "configurations": {
            "production": {
              "buildTarget": "social-network-frontend:build:production",
              "hmr": false
            }
          }
        },
        "lint": {
          "executor": "@nrwl/linter:eslint",
          "outputs": ["{options.outputFile}"],
          "options": {
            "lintFilePatterns": [
              "apps/social-network-frontend/**/*.{ts,tsx,js,jsx}"
            ]
          }
        },
        "test": {
          "executor": "@nrwl/jest:jest",
          "outputs": [
            "coverage/apps/social-network-frontend",
            "build/test-results/jest"
          ],
          "options": {
            "jestConfig": "apps/social-network-frontend/jest.config.js",
            "passWithNoTests": true
          }
        },
        "docker": {
          "executor": "@nrwl/workspace:run-commands",
          "options": {
            "commands": [
              "yarn nx build social-network-frontend --prod",
              "docker build -f ./apps/social-network-frontend/Dockerfile . -t wizard2020abc/social-network-frontend:1.0.0 -t wizard2020abc/social-network-frontend",
              "docker push wizard2020abc/social-network-frontend:1.0.0",
              "docker push wizard2020abc/social-network-frontend"
            ],
            "parallel": false
          }
        }
      },
      "tags": []
    },
    "social-network-frontend-components-routes": {
      "root": "libs/social-network-frontend/components-routes",
      "sourceRoot": "libs/social-network-frontend/components-routes/src",
      "projectType": "library",
      "targets": {
        "lint": {
          "executor": "@nrwl/linter:eslint",
          "outputs": ["{options.outputFile}"],
          "options": {
            "lintFilePatterns": [
              "libs/social-network-frontend/components-routes/**/*.{ts,tsx,js,jsx}"
            ]
          }
        },
        "test": {
          "executor": "@nrwl/jest:jest",
          "outputs": [
            "coverage/libs/social-network-frontend/components-routes",
            "build/test-results/jest"
          ],
          "options": {
            "jestConfig": "libs/social-network-frontend/components-routes/jest.config.js",
            "passWithNoTests": true
          }
        }
      },
      "tags": []
    },
    "social-network-frontend-config-constants": {
      "root": "libs/social-network-frontend/config-constants",
      "sourceRoot": "libs/social-network-frontend/config-constants/src",
      "projectType": "library",
      "targets": {
        "lint": {
          "executor": "@nrwl/linter:eslint",
          "outputs": ["{options.outputFile}"],
          "options": {
            "lintFilePatterns": [
              "libs/social-network-frontend/config-constants/**/*.{ts,tsx,js,jsx}"
            ]
          }
        },
        "test": {
          "executor": "@nrwl/jest:jest",
          "outputs": ["coverage/libs/social-network-frontend/config-constants"],
          "options": {
            "jestConfig": "libs/social-network-frontend/config-constants/jest.config.js",
            "passWithNoTests": true
          }
        }
      },
      "tags": []
    },
    "social-network-frontend-config-env": {
      "root": "libs/social-network-frontend/config-env",
      "sourceRoot": "libs/social-network-frontend/config-env/src",
      "projectType": "library",
      "tags": [],
      "targets": {
        "lint": {
          "executor": "@nrwl/linter:eslint",
          "outputs": ["{options.outputFile}"],
          "options": {
            "lintFilePatterns": [
              "libs/social-network-frontend/config-env/**/*.{ts,tsx,js,jsx}"
            ]
          }
        },
        "test": {
          "executor": "@nrwl/jest:jest",
          "outputs": ["coverage/libs/social-network-frontend/config-env"],
          "options": {
            "jestConfig": "libs/social-network-frontend/config-env/jest.config.js",
            "passWithNoTests": true
          }
        }
      }
    },
    "social-network-frontend-config-store": {
      "root": "libs/social-network-frontend/config-store",
      "sourceRoot": "libs/social-network-frontend/config-store/src",
      "projectType": "library",
      "targets": {
        "lint": {
          "executor": "@nrwl/linter:eslint",
          "outputs": ["{options.outputFile}"],
          "options": {
            "lintFilePatterns": [
              "libs/social-network-frontend/config-store/**/*.{ts,tsx,js,jsx}"
            ]
          }
        },
        "test": {
          "executor": "@nrwl/jest:jest",
          "outputs": ["coverage/libs/social-network-frontend/config-store"],
          "options": {
            "jestConfig": "libs/social-network-frontend/config-store/jest.config.js",
            "passWithNoTests": true
          }
        }
      },
      "tags": []
    },
    "social-network-frontend-data-access-home": {
      "root": "libs/social-network-frontend/data-access-home",
      "sourceRoot": "libs/social-network-frontend/data-access-home/src",
      "projectType": "library",
      "targets": {
        "lint": {
          "executor": "@nrwl/linter:eslint",
          "outputs": ["{options.outputFile}"],
          "options": {
            "lintFilePatterns": [
              "libs/social-network-frontend/data-access-home/**/*.{ts,tsx,js,jsx}"
            ]
          }
        },
        "test": {
          "executor": "@nrwl/jest:jest",
          "outputs": [
            "coverage/libs/social-network-frontend/data-access-home",
            "build/test-results/jest"
          ],
          "options": {
            "jestConfig": "libs/social-network-frontend/data-access-home/jest.config.js",
            "passWithNoTests": true
          }
        }
      },
      "tags": []
    },
    "social-network-frontend-data-access-user": {
      "root": "libs/social-network-frontend/data-access-user",
      "sourceRoot": "libs/social-network-frontend/data-access-user/src",
      "projectType": "library",
      "tags": [],
      "targets": {
        "lint": {
          "executor": "@nrwl/linter:eslint",
          "outputs": ["{options.outputFile}"],
          "options": {
            "lintFilePatterns": [
              "libs/social-network-frontend/data-access-user/**/*.{ts,tsx,js,jsx}"
            ]
          }
        },
        "test": {
          "executor": "@nrwl/jest:jest",
          "outputs": [
            "coverage/libs/social-network-frontend/data-access-user",
            "build/test-results/jest"
          ],
          "options": {
            "jestConfig": "libs/social-network-frontend/data-access-user/jest.config.js",
            "passWithNoTests": true
          }
        }
      }
    },
    "social-network-frontend-e2e": {
      "root": "apps/social-network-frontend-e2e",
      "sourceRoot": "apps/social-network-frontend-e2e/src",
      "projectType": "application",
      "targets": {
        "e2e-ci": {
          "executor": "@nrwl/workspace:run-commands",
          "options": {
            "commands": [
              "start-server-and-test \"nx serve sn-application\" http://localhost:8080/management/health \"percy exec -- nx e2e social-network-frontend-e2e --record --key 88b29306-7ca0-4a9f-ba87-5e19505686f0\""
            ],
            "parallel": false
          }
        },
        "e2e": {
          "executor": "@nrwl/cypress:cypress",
          "options": {
            "cypressConfig": "apps/social-network-frontend-e2e/cypress.json",
            "devServerTarget": "social-network-frontend:serve",
            "tsConfig": "apps/social-network-frontend-e2e/tsconfig.json"
          },
          "configurations": {
            "production": {
              "devServerTarget": "social-network-frontend:serve:production"
            }
          }
        },
        "lint": {
          "executor": "@nrwl/linter:eslint",
          "outputs": ["{options.outputFile}"],
          "options": {
            "lintFilePatterns": [
              "apps/social-network-frontend-e2e/**/*.{js,ts}"
            ]
          }
        }
      },
      "tags": [],
      "implicitDependencies": ["social-network-frontend"]
    },
    "social-network-frontend-feature-auth": {
      "root": "libs/social-network-frontend/feature-auth",
      "sourceRoot": "libs/social-network-frontend/feature-auth/src",
      "projectType": "library",
      "targets": {
        "lint": {
          "executor": "@nrwl/linter:eslint",
          "outputs": ["{options.outputFile}"],
          "options": {
            "lintFilePatterns": [
              "libs/social-network-frontend/feature-auth/**/*.{ts,tsx,js,jsx}"
            ]
          }
        },
        "test": {
          "executor": "@nrwl/jest:jest",
          "outputs": [
            "coverage/libs/social-network-frontend/feature-auth",
            "build/test-results/jest"
          ],
          "options": {
            "jestConfig": "libs/social-network-frontend/feature-auth/jest.config.js",
            "passWithNoTests": true
          }
        }
      },
      "tags": []
    },
    "social-network-frontend-feature-home": {
      "root": "libs/social-network-frontend/feature-home",
      "sourceRoot": "libs/social-network-frontend/feature-home/src",
      "projectType": "library",
      "targets": {
        "lint": {
          "executor": "@nrwl/linter:eslint",
          "outputs": ["{options.outputFile}"],
          "options": {
            "lintFilePatterns": [
              "libs/social-network-frontend/feature-home/**/*.{ts,tsx,js,jsx}"
            ]
          }
        },
        "test": {
          "executor": "@nrwl/jest:jest",
          "outputs": [
            "coverage/libs/social-network-frontend/feature-home",
            "build/test-results/jest"
          ],
          "options": {
            "jestConfig": "libs/social-network-frontend/feature-home/jest.config.js",
            "passWithNoTests": true
          }
        }
      },
      "tags": []
    },
    "social-network-frontend-feature-user": {
      "root": "libs/social-network-frontend/feature-user",
      "sourceRoot": "libs/social-network-frontend/feature-user/src",
      "projectType": "library",
      "tags": [],
      "targets": {
        "lint": {
          "executor": "@nrwl/linter:eslint",
          "outputs": ["{options.outputFile}"],
          "options": {
            "lintFilePatterns": [
              "libs/social-network-frontend/feature-user/**/*.{ts,tsx,js,jsx}"
            ]
          }
        },
        "test": {
          "executor": "@nrwl/jest:jest",
          "outputs": [
            "coverage/libs/social-network-frontend/feature-user",
            "build/test-results/jest"
          ],
          "options": {
            "jestConfig": "libs/social-network-frontend/feature-user/jest.config.js",
            "passWithNoTests": true
          }
        }
      }
    },
    "social-network-frontend-ui-cards": {
      "root": "libs/social-network-frontend/ui-cards",
      "sourceRoot": "libs/social-network-frontend/ui-cards/src",
      "projectType": "library",
      "tags": [],
      "targets": {
        "lint": {
          "executor": "@nrwl/linter:eslint",
          "outputs": ["{options.outputFile}"],
          "options": {
            "lintFilePatterns": [
              "libs/social-network-frontend/ui-cards/**/*.{ts,tsx,js,jsx}"
            ]
          }
        },
        "test": {
          "executor": "@nrwl/jest:jest",
          "outputs": [
            "coverage/libs/social-network-frontend/ui-cards",
            "build/test-results/jest"
          ],
          "options": {
            "jestConfig": "libs/social-network-frontend/ui-cards/jest.config.js",
            "passWithNoTests": true
          }
        }
      }
    },
    "social-network-frontend-ui-crossbar": {
      "root": "libs/social-network-frontend/ui-crossbar",
      "sourceRoot": "libs/social-network-frontend/ui-crossbar/src",
      "projectType": "library",
      "tags": [],
      "targets": {
        "lint": {
          "executor": "@nrwl/linter:eslint",
          "outputs": ["{options.outputFile}"],
          "options": {
            "lintFilePatterns": [
              "libs/social-network-frontend/ui-crossbar/**/*.{ts,tsx,js,jsx}"
            ]
          }
        },
        "test": {
          "executor": "@nrwl/jest:jest",
          "outputs": [
            "coverage/libs/social-network-frontend/ui-crossbar",
            "build/test-results/jest"
          ],
          "options": {
            "jestConfig": "libs/social-network-frontend/ui-crossbar/jest.config.js",
            "passWithNoTests": true
          }
        }
      }
    },
    "social-network-frontend-ui-dropdowns": {
      "root": "libs/social-network-frontend/ui-dropdowns",
      "sourceRoot": "libs/social-network-frontend/ui-dropdowns/src",
      "projectType": "library",
      "tags": [],
      "targets": {
        "lint": {
          "executor": "@nrwl/linter:eslint",
          "outputs": ["{options.outputFile}"],
          "options": {
            "lintFilePatterns": [
              "libs/social-network-frontend/ui-dropdowns/**/*.{ts,tsx,js,jsx}"
            ]
          }
        },
        "test": {
          "executor": "@nrwl/jest:jest",
          "outputs": [
            "coverage/libs/social-network-frontend/ui-dropdowns",
            "build/test-results/jest"
          ],
          "options": {
            "jestConfig": "libs/social-network-frontend/ui-dropdowns/jest.config.js",
            "passWithNoTests": true
          }
        }
      }
    },
    "social-network-frontend-ui-form": {
      "root": "libs/social-network-frontend/ui-form",
      "sourceRoot": "libs/social-network-frontend/ui-form/src",
      "projectType": "library",
      "tags": [],
      "targets": {
        "lint": {
          "executor": "@nrwl/linter:eslint",
          "outputs": ["{options.outputFile}"],
          "options": {
            "lintFilePatterns": [
              "libs/social-network-frontend/ui-form/**/*.{ts,tsx,js,jsx}"
            ]
          }
        },
        "test": {
          "executor": "@nrwl/jest:jest",
          "outputs": [
            "coverage/libs/social-network-frontend/ui-form",
            "build/test-results/jest"
          ],
          "options": {
            "jestConfig": "libs/social-network-frontend/ui-form/jest.config.js",
            "passWithNoTests": true
          }
        }
      }
    },
    "social-network-frontend-ui-inputs": {
      "root": "libs/social-network-frontend/ui-inputs",
      "sourceRoot": "libs/social-network-frontend/ui-inputs/src",
      "projectType": "library",
      "tags": [],
      "targets": {
        "lint": {
          "executor": "@nrwl/linter:eslint",
          "outputs": ["{options.outputFile}"],
          "options": {
            "lintFilePatterns": [
              "libs/social-network-frontend/ui-inputs/**/*.{ts,tsx,js,jsx}"
            ]
          }
        },
        "test": {
          "executor": "@nrwl/jest:jest",
          "outputs": [
            "coverage/libs/social-network-frontend/ui-inputs",
            "build/test-results/jest"
          ],
          "options": {
            "jestConfig": "libs/social-network-frontend/ui-inputs/jest.config.js",
            "passWithNoTests": true
          }
        }
      }
    },
    "social-network-frontend-utils-testing": {
      "root": "libs/social-network-frontend/utils-testing",
      "sourceRoot": "libs/social-network-frontend/utils-testing/src",
      "projectType": "library",
      "targets": {
        "lint": {
          "executor": "@nrwl/linter:eslint",
          "outputs": ["{options.outputFile}"],
          "options": {
            "lintFilePatterns": [
              "libs/social-network-frontend/utils-testing/**/*.{ts,tsx,js,jsx}"
            ]
          }
        },
        "test": {
          "executor": "@nrwl/jest:jest",
          "outputs": ["coverage/libs/social-network-frontend/utils-testing"],
          "options": {
            "jestConfig": "libs/social-network-frontend/utils-testing/jest.config.js",
            "passWithNoTests": true
          }
        }
      },
      "tags": []
    }
  }
}
